{
  "applications": "*",
  "changelogDate": "20220708080326",
  "dto": "no",
  "embedded": false,
  "entityTableName": "location",
  "fields": [
    {
      "fieldName": "streetAddress",
      "fieldType": "String"
    },
    {
      "fieldName": "postalCode",
      "fieldType": "String"
    },
    {
      "fieldName": "city",
      "fieldType": "String"
    },
    {
      "fieldName": "stateProvince",
      "fieldType": "String"
    }
  ],
  "fluentMethods": true,
  "javadoc": "not an ignored comment",
  "jpaMetamodelFiltering": false,
  "name": "Location",
  "pagination": "no",
  "readOnly": false,
  "relationships": [
    {
      "otherEntityName": "country",
      "otherEntityRelationshipName": "location",
      "ownerSide": true,
      "relationshipName": "country",
      "relationshipType": "one-to-one"
    }
  ],
  "service": "serviceImpl"
}
