{
  "applications": "*",
  "changelogDate": "20220708080329",
  "dto": "no",
  "embedded": false,
  "entityTableName": "employee",
  "fields": [
    {
      "fieldName": "firstName",
      "fieldType": "String",
      "javadoc": "The firstname attribute."
    },
    {
      "fieldName": "lastName",
      "fieldType": "String"
    },
    {
      "fieldName": "email",
      "fieldType": "String"
    },
    {
      "fieldName": "phoneNumber",
      "fieldType": "String",
      "fieldValidateRules": ["pattern"],
      "fieldValidateRulesPattern": "^([0-9]{2}\\-){4}[0-9]{2}$"
    },
    {
      "fieldName": "hireDate",
      "fieldType": "Instant"
    },
    {
      "fieldName": "salary",
      "fieldType": "Long"
    },
    {
      "fieldName": "commissionPct",
      "fieldType": "Long"
    }
  ],
  "fluentMethods": true,
  "javadoc": "The Employee entity.",
  "jpaMetamodelFiltering": false,
  "name": "Employee",
  "pagination": "infinite-scroll",
  "readOnly": false,
  "relationships": [
    {
      "otherEntityName": "job",
      "otherEntityRelationshipName": "employee",
      "relationshipName": "job",
      "relationshipType": "one-to-many"
    },
    {
      "otherEntityName": "employee",
      "otherEntityRelationshipName": "employee",
      "relationshipName": "manager",
      "relationshipType": "many-to-one"
    },
    {
      "javadoc": "Another side of the same relationship",
      "otherEntityName": "department",
      "otherEntityRelationshipName": "employee",
      "relationshipName": "department",
      "relationshipType": "many-to-one"
    }
  ],
  "service": "no"
}
