{
  "applications": "*",
  "changelogDate": "20220708080328",
  "dto": "no",
  "embedded": false,
  "entityTableName": "task",
  "fields": [
    {
      "fieldName": "title",
      "fieldType": "String"
    },
    {
      "fieldName": "description",
      "fieldType": "String"
    }
  ],
  "fluentMethods": true,
  "javadoc": "Task entity.\\n@author The JHipster team.",
  "jpaMetamodelFiltering": false,
  "name": "Task",
  "pagination": "no",
  "readOnly": false,
  "relationships": [
    {
      "otherEntityName": "job",
      "otherEntityRelationshipName": "task",
      "ownerSide": false,
      "relationshipName": "job",
      "relationshipType": "many-to-many"
    }
  ],
  "service": "serviceImpl"
}
